intro_causality_manimal - Introduction to causality in epidemiology
…
Bovid-19

Bovid-19 is a (fictitious) viral disease of cows that very often results in death

Two treatments are used to prevent death

The effectiveness of these treatments is unknown

The following dataset was collected from 1000 cows treated with either one or the other treatment

# A tibble: 1,000 × 4
   anim_id   age treat death_obs
     <int> <dbl> <chr>     <dbl>
 1       1   5.5 A             0
 2       2   8.4 B             0
 3       3   8.9 A             1
 4       4   8.5 B             1
 5       5   7.2 B             0
 6       6   9.8 B             1
 7       7   7.2 A             0
 8       8   9.9 B             1
 9       9   7.3 B             0
10      10   9.7 B             0
# ℹ 990 more rows
…
